<?xml version="1.0" encoding="UTF-8" standalone="no"?>
<svg width="80px" height="80px" viewBox="0 0 80 80" version="1.1" xmlns="http://www.w3.org/2000/svg" xmlns:xlink="http://www.w3.org/1999/xlink" xmlns:sketch="http://www.bohemiancoding.com/sketch/ns">
    <!-- Generator: Sketch 3.0.4 (8053) - http://www.bohemiancoding.com/sketch -->
    <title>GitHub</title>
    <desc>Created with Sketch.</desc>
    <defs></defs>
    <g id="Page-1" stroke="none" stroke-width="1" fill="none" fill-rule="evenodd" sketch:type="MSPage">
        <g id="GitHub" sketch:type="MSArtboardGroup" fill="#FF7F00">
            <path d="M40,1 C17.9115056,1 0,18.9020296 0,40.9870487 C0,58.6546666 11.4612175,73.6437675 27.3544413,78.9312728 C29.3535139,79.3014313 30.0874346,78.0638173 30.0874346,77.0076406 C30.0874346,76.0541018 30.0503411,72.9041127 30.0331192,69.5627537 C18.9050805,71.9816963 16.5569318,64.8447229 16.5569318,64.8447229 C14.737365,60.2227083 12.1156521,58.9937027 12.1156521,58.9937027 C8.48645426,56.5118529 12.3892164,56.5628408 12.3892164,56.5628408 C16.4059085,56.8449294 18.5208982,60.6835854 18.5208982,60.6835854 C22.0884944,66.7968289 27.8783864,65.0294711 30.1609591,64.0077277 C30.5199709,61.4239023 31.5566006,59.6591933 32.7005365,58.6606262 C23.8159899,57.6494778 14.476386,54.220711 14.476386,38.8985337 C14.476386,34.5327826 16.0389481,30.9656203 18.5977346,28.1652621 C18.1824203,27.1580867 16.8132742,23.0909787 18.9852289,17.5829675 C18.9852289,17.5829675 22.3448367,16.508912 29.9880771,21.6818602 C33.1787772,20.7958637 36.6006491,20.3515411 40,20.3363109 C43.3993509,20.3515411 46.8238723,20.7958637 50.0205339,21.6818602 C57.6551633,16.508912 61.0094721,17.5829675 61.0094721,17.5829675 C63.1867258,23.0909787 61.8169173,27.1580867 61.401603,28.1652621 C63.9670133,30.9656203 65.5183149,34.5327826 65.5183149,38.8985337 C65.5183149,54.2571309 56.1608267,57.6388829 47.253759,58.6288416 C48.6884812,59.8697665 49.9668808,62.3032771 49.9668808,66.0339978 C49.9668808,71.3844102 49.920514,75.6905651 49.920514,77.0076406 C49.920514,78.0717635 50.6405246,79.318648 52.6680798,78.9259754 C68.5526926,73.6325104 80,58.648707 80,40.9870487 C80,18.9020296 62.0904816,1 40,1" id="Fill-2" sketch:type="MSShapeGroup"></path>
        </g>
    </g>
</svg>