<?xml version="1.0" encoding="UTF-8" standalone="no"?>
<svg width="110px" height="70px" viewBox="0 0 110 70" version="1.1" xmlns="http://www.w3.org/2000/svg" xmlns:xlink="http://www.w3.org/1999/xlink" xmlns:sketch="http://www.bohemiancoding.com/sketch/ns">
    <!-- Generator: Sketch 3.2.2 (9983) - http://www.bohemiancoding.com/sketch -->
    <title>icloud</title>
    <desc>Created with Sketch.</desc>
    <defs></defs>
    <g id="Page-1" stroke="none" stroke-width="1" fill="none" fill-rule="evenodd" sketch:type="MSPage">
        <g id="icloud" sketch:type="MSArtboardGroup" fill="#FF7F00">
            <path d="M0,48 C0,38.2271172 6.37233327,29.9425727 15.1886317,27.0747344 C16.3527524,19.6663551 22.7646521,14 30.5,14 C32.9992443,14 35.3603342,14.5915092 37.4509111,15.642169 C42.4125944,6.33492857 52.2164963,0 63.5,0 C79.4161986,0 92.3884121,12.6046987 92.9789987,28.3764544 C102.674301,30.2358962 110,38.7624437 110,49 C110,60.5979797 100.59798,70 89,70 L22,70 C9.8497355,70 0,60.1502645 0,48 Z" id="Oval-1" sketch:type="MSShapeGroup"></path>
        </g>
    </g>
</svg>